<?xml version="1.0" encoding="UTF-8"?>
<svg width="617px" height="468px" viewBox="0 0 617 468" version="1.1" xmlns="http://www.w3.org/2000/svg" xmlns:xlink="http://www.w3.org/1999/xlink">
    <title>Artboard</title>
    <g id="Artboard" stroke="none" stroke-width="1" fill="none" fill-rule="evenodd">
        <g id="Group-Copy" transform="translate(50.415000, 100.000000)">
            <path d="M331.851,7.09 L317.673,7.09 L317.673,21.268 L331.851,21.268 L331.851,7.09 L331.851,7.09 Z M338.94,21.267 L331.851,21.267 L331.851,28.356 L317.674,28.356 L317.674,49.623 L310.585,49.623 L310.585,-7.10542736e-15 L331.851,-7.10542736e-15 L331.851,7.09 L338.94,7.09 L338.94,21.267 L338.94,21.267 Z" id="Shape" stroke="#FF0000" stroke-width="2"></path>
            <polygon id="Shape" stroke="#3FA9F5" stroke-width="2" points="345.585 49.623 345.585 42.534 352.674 42.534 352.674 7.09 345.585 7.09 345.585 -1.0658141e-14 366.853 -1.0658141e-14 366.853 7.09 359.763 7.09 359.763 42.534 366.853 42.534 366.853 49.623"></polygon>
            <path d="M409.03,49.622 L401.941,49.622 L401.941,42.533 L409.03,42.533 L409.03,49.622 L409.03,49.622 Z M409.03,7.089 L401.941,7.089 L401.941,-3.55271368e-15 L409.03,-3.55271368e-15 L409.03,7.089 L409.03,7.089 Z M401.941,42.533 L394.852,42.533 L394.852,28.355 L401.941,28.355 L401.941,42.533 L401.941,42.533 Z M401.941,21.266 L394.852,21.266 L394.852,7.088 L401.941,7.088 L401.941,21.266 L401.941,21.266 Z M394.853,28.355 L387.763,28.355 L387.763,21.266 L394.853,21.266 L394.853,28.355 L394.853,28.355 Z M387.763,42.533 L380.674,42.533 L380.674,28.355 L387.763,28.355 L387.763,42.533 L387.763,42.533 Z M387.763,21.266 L380.674,21.266 L380.674,7.088 L387.763,7.088 L387.763,21.266 L387.763,21.266 Z M380.674,49.622 L373.585,49.622 L373.585,42.533 L380.674,42.533 L380.674,49.622 L380.674,49.622 Z M380.674,7.089 L373.585,7.089 L373.585,-3.55271368e-15 L380.674,-3.55271368e-15 L380.674,7.089 L380.674,7.089 Z" id="Shape" stroke="#52F800" stroke-width="2"></path>
            <polygon id="Shape" stroke="#B400FF" stroke-width="2" points="444.94 49.623 416.585 49.623 416.585 -1.42108547e-14 444.94 -1.42108547e-14 444.94 7.09 423.673 7.09 423.673 21.268 439.269 21.268 439.269 28.356 423.673 28.356 423.673 42.534 444.94 42.534 444.94 49.623"></polygon>
            <polygon id="Shape" stroke="#FF5400" stroke-width="2" points="480.94 49.623 452.585 49.623 452.585 -1.42108547e-14 459.673 -1.42108547e-14 459.673 42.534 480.94 42.534"></polygon>
            <path d="M515.941,42.533 L508.852,42.533 L508.852,28.355 L515.941,28.355 L515.941,42.533 L515.941,42.533 Z M508.852,28.355 L494.674,28.355 L494.674,21.266 L508.852,21.266 L508.852,28.355 L508.852,28.355 Z M515.941,7.089 L494.674,7.089 L494.674,-3.55271368e-15 L515.941,-3.55271368e-15 L515.941,7.089 L515.941,7.089 Z M508.852,49.622 L487.585,49.622 L487.585,42.533 L508.852,42.533 L508.852,49.622 L508.852,49.622 Z M494.674,21.266 L487.585,21.266 L487.585,7.088 L494.674,7.088 L494.674,21.266 L494.674,21.266 Z" id="Shape" stroke="#FF0090" stroke-width="2"></path>
            <path d="M16.491,50.483 C25.668,50.483 35.397,44.411 33.189,34.199 C31.6986,27.2438 25.3876875,26.10116 18.7833525,25.4077359 L17.9014331,25.3174705 C17.7542893,25.302713 17.6070998,25.2880596 17.4599146,25.2734515 L16.1367002,25.1416113 C8.9477475,24.4131647 2.12658,23.36945 1.518,15.086 C1.311,12.395 1.932,9.842 3.657,7.703 C6.555,3.908 11.73,2.252 16.284,2.183 C20.631,2.114 25.392,3.425 28.359,6.599 C29.739,8.117 30.567,9.842 30.981,11.843 L31.05,12.395 L32.085,12.188 L32.016,11.636 C29.67,-0.853 9.798,-2.026 2.76,7.082 C0.966,9.428 0.207,12.257 0.483,15.155 C1.725,33.164 28.98,20.054 32.085,34.406 C34.086,43.997 24.978,49.448 16.56,49.448 C10.005,49.448 1.932,45.791 1.173,38.546 L1.104,38.063 L0,38.201 L0.069,38.684 C0.897,46.481 9.453,50.483 16.491,50.483 Z M60.927,50.069 C67.482,50.069 73.347,47.378 77.625,42.962 C79.695,40.823 81.42,38.27 82.593,35.441 L81.42,35.441 C80.316,37.994 78.729,40.202 76.866,42.134 C72.795,46.343 67.137,48.965 60.927,48.965 C54.717,48.965 49.059,46.343 44.988,42.134 C40.917,37.994 38.364,32.267 38.364,25.919 C38.364,19.64 40.917,13.913 44.988,9.704 C49.059,5.495 54.717,2.942 60.927,2.942 C67.137,2.942 72.795,5.495 76.866,9.704 C78.729,11.636 80.316,13.913 81.42,16.466 L82.593,16.466 C81.42,13.637 79.695,11.084 77.625,8.945 C73.347,4.529 67.482,1.838 60.927,1.838 C54.372,1.838 48.507,4.529 44.229,8.945 C40.02,13.292 37.329,19.295 37.329,25.919 C37.329,32.612 40.02,38.615 44.229,42.962 C48.507,47.378 54.372,50.069 60.927,50.069 Z M88.734,50 L88.734,2.804 L104.397,2.804 C122.337,2.804 122.337,28.886 104.397,28.886 L95.013,28.886 L95.013,29.921 L117.231,50 L118.818,50 L96.6,29.921 L104.397,29.921 C123.717,29.921 123.717,1.7 104.397,1.7 L87.699,1.7 L87.699,50 L88.734,50 Z M143.382,50 L143.382,48.965 L133.101,48.965 L133.101,2.735 L143.382,2.735 L143.382,1.769 L121.785,1.769 L121.785,1.769 L121.785,2.735 L132.066,2.735 L132.066,48.965 L121.785,48.965 L121.785,50 L143.382,50 L143.382,50 Z M148.695,50 L148.695,31.646 L164.289,31.646 C183.609,31.646 183.609,1.7 164.289,1.7 L147.591,1.7 L147.591,50 L147.591,50 L148.695,50 Z M164.289,30.611 L148.695,30.611 L148.695,2.804 L164.289,2.804 C182.229,2.804 182.229,30.611 164.289,30.611 Z M195.753,50.207 L195.753,2.804 L212.451,2.804 L212.451,1.7 L178.02,1.7 L178.02,2.804 L194.718,2.804 L194.718,50.207 L195.753,50.207 Z M243.363,50 L243.363,48.965 L217.695,48.965 L217.695,26.402 L242.673,26.402 L242.673,25.298 L217.695,25.298 L217.695,2.804 L243.225,2.804 L243.225,1.769 L216.591,1.769 L216.591,50 L243.363,50 Z M264.615,50 C296.286,50 296.286,1.769 264.615,1.769 L248.331,1.769 L248.331,50 L248.331,50 L264.615,50 Z M264.615,48.965 L249.366,48.965 L249.366,2.804 L249.366,2.804 L264.615,2.804 C294.906,2.804 294.906,48.965 264.615,48.965 Z" id="SCRIPTED" stroke="#FFFFFF" fill="#FFFFFF" fill-rule="nonzero"></path>
        </g>
        <g id="Group-Copy-2" transform="translate(164.000000, 251.000000)">
            <g id="Group" transform="translate(42.000000, 67.000000)" stroke-width="2">
                <g id="Group-2" transform="translate(-0.000000, -0.000000)">
                    <path d="M21.266,7.09 L7.088,7.09 L7.088,21.268 L21.266,21.268 L21.266,7.09 L21.266,7.09 Z M28.355,21.267 L21.266,21.267 L21.266,28.356 L7.089,28.356 L7.089,49.623 L-1.15463195e-13,49.623 L-1.15463195e-13,-1.0658141e-14 L21.266,-1.0658141e-14 L21.266,7.09 L28.355,7.09 L28.355,21.267 L28.355,21.267 Z" id="Shape" stroke="#FF0000"></path>
                    <polygon id="Shape" stroke="#3FA9F5" points="35 49.623 35 42.534 42.089 42.534 42.089 7.09 35 7.09 35 -1.42108547e-14 56.268 -1.42108547e-14 56.268 7.09 49.178 7.09 49.178 42.534 56.268 42.534 56.268 49.623"></polygon>
                    <polygon id="Shape" stroke="#B400FF" points="134.355 49.623 106 49.623 106 -1.77635684e-14 134.355 -1.77635684e-14 134.355 7.09 113.088 7.09 113.088 21.268 128.684 21.268 128.684 28.356 113.088 28.356 113.088 42.534 134.355 42.534 134.355 49.623"></polygon>
                    <path d="M205.356,42.533 L198.267,42.533 L198.267,28.355 L205.356,28.355 L205.356,42.533 L205.356,42.533 Z M198.267,28.355 L184.089,28.355 L184.089,21.266 L198.267,21.266 L198.267,28.355 L198.267,28.355 Z M205.356,7.089 L184.089,7.089 L184.089,3.55271368e-15 L205.356,3.55271368e-15 L205.356,7.089 L205.356,7.089 Z M198.267,49.622 L177,49.622 L177,42.533 L198.267,42.533 L198.267,49.622 L198.267,49.622 Z M184.089,21.266 L177,21.266 L177,7.088 L184.089,7.088 L184.089,21.266 L184.089,21.266 Z" id="Shape" stroke="#FF0090"></path>
                    <path d="M98.445,49.622 L91.356,49.622 L91.356,42.533 L98.445,42.533 L98.445,49.622 L98.445,49.622 Z M98.445,7.089 L91.356,7.089 L91.356,3.55271368e-15 L98.445,3.55271368e-15 L98.445,7.089 L98.445,7.089 Z M91.356,42.533 L84.267,42.533 L84.267,28.355 L91.356,28.355 L91.356,42.533 L91.356,42.533 Z M91.356,21.266 L84.267,21.266 L84.267,7.088 L91.356,7.088 L91.356,21.266 L91.356,21.266 Z M84.268,28.355 L77.178,28.355 L77.178,21.266 L84.268,21.266 L84.268,28.355 L84.268,28.355 Z M77.178,42.533 L70.089,42.533 L70.089,28.355 L77.178,28.355 L77.178,42.533 L77.178,42.533 Z M77.178,21.266 L70.089,21.266 L70.089,7.088 L77.178,7.088 L77.178,21.266 L77.178,21.266 Z M70.089,49.622 L63,49.622 L63,42.533 L70.089,42.533 L70.089,49.622 L70.089,49.622 Z M70.089,7.089 L63,7.089 L63,3.55271368e-15 L70.089,3.55271368e-15 L70.089,7.089 L70.089,7.089 Z" id="Shape" stroke="#52F800"></path>
                    <polygon id="Shape" stroke="#FF5400" points="170.355 49.623 142 49.623 142 -1.77635684e-14 149.088 -1.77635684e-14 149.088 42.534 170.355 42.534"></polygon>
                </g>
            </g>
            <path d="M16.491,49.3655525 C25.668,49.3655525 35.397,43.2935525 33.189,33.0815525 C31.6986,26.1263525 25.3876875,24.9837125 18.7833525,24.2902884 L17.9014331,24.200023 C17.7542893,24.1852655 17.6070998,24.1706121 17.4599146,24.156004 L16.1367002,24.0241638 C8.9477475,23.2957172 2.12658,22.2520025 1.518,13.9685525 C1.311,11.2775525 1.932,8.7245525 3.657,6.5855525 C6.555,2.7905525 11.73,1.1345525 16.284,1.0655525 C20.631,0.996552499 25.392,2.3075525 28.359,5.4815525 C29.739,6.9995525 30.567,8.7245525 30.981,10.7255525 L31.05,11.2775525 L32.085,11.0705525 L32.016,10.5185525 C29.67,-1.9704475 9.798,-3.1434475 2.76,5.9645525 C0.966,8.3105525 0.207,11.1395525 0.483,14.0375525 C1.725,32.0465525 28.98,18.9365525 32.085,33.2885525 C34.086,42.8795525 24.978,48.3305525 16.56,48.3305525 C10.005,48.3305525 1.932,44.6735525 1.173,37.4285525 L1.104,36.9455525 L0,37.0835525 L0.069,37.5665525 C0.897,45.3635525 9.453,49.3655525 16.491,49.3655525 Z M60.927,48.9515525 C67.482,48.9515525 73.347,46.2605525 77.625,41.8445525 C79.695,39.7055525 81.42,37.1525525 82.593,34.3235525 L81.42,34.3235525 C80.316,36.8765525 78.729,39.0845525 76.866,41.0165525 C72.795,45.2255525 67.137,47.8475525 60.927,47.8475525 C54.717,47.8475525 49.059,45.2255525 44.988,41.0165525 C40.917,36.8765525 38.364,31.1495525 38.364,24.8015525 C38.364,18.5225525 40.917,12.7955525 44.988,8.5865525 C49.059,4.3775525 54.717,1.8245525 60.927,1.8245525 C67.137,1.8245525 72.795,4.3775525 76.866,8.5865525 C78.729,10.5185525 80.316,12.7955525 81.42,15.3485525 L82.593,15.3485525 C81.42,12.5195525 79.695,9.9665525 77.625,7.8275525 C73.347,3.4115525 67.482,0.720552499 60.927,0.720552499 C54.372,0.720552499 48.507,3.4115525 44.229,7.8275525 C40.02,12.1745525 37.329,18.1775525 37.329,24.8015525 C37.329,31.4945525 40.02,37.4975525 44.229,41.8445525 C48.507,46.2605525 54.372,48.9515525 60.927,48.9515525 Z M88.734,48.8825525 L88.734,1.6865525 L104.397,1.6865525 C122.337,1.6865525 122.337,27.7685525 104.397,27.7685525 L95.013,27.7685525 L95.013,28.8035525 L117.231,48.8825525 L118.818,48.8825525 L96.6,28.8035525 L104.397,28.8035525 C123.717,28.8035525 123.717,0.582552499 104.397,0.582552499 L87.699,0.582552499 L87.699,48.8825525 L88.734,48.8825525 Z M143.382,48.8825525 L143.382,47.8475525 L133.101,47.8475525 L133.101,1.6175525 L143.382,1.6175525 L143.382,0.651552499 L121.785,0.651552499 L121.785,0.651552499 L121.785,1.6175525 L132.066,1.6175525 L132.066,47.8475525 L121.785,47.8475525 L121.785,48.8825525 L143.382,48.8825525 L143.382,48.8825525 Z M148.695,48.8825525 L148.695,30.5285525 L164.289,30.5285525 C183.609,30.5285525 183.609,0.582552499 164.289,0.582552499 L147.591,0.582552499 L147.591,48.8825525 L147.591,48.8825525 L148.695,48.8825525 Z M164.289,29.4935525 L148.695,29.4935525 L148.695,1.6865525 L164.289,1.6865525 C182.229,1.6865525 182.229,29.4935525 164.289,29.4935525 Z M195.753,49.0895525 L195.753,1.6865525 L212.451,1.6865525 L212.451,0.582552499 L178.02,0.582552499 L178.02,1.6865525 L194.718,1.6865525 L194.718,49.0895525 L195.753,49.0895525 Z M243.363,48.8825525 L243.363,47.8475525 L217.695,47.8475525 L217.695,25.2845525 L242.673,25.2845525 L242.673,24.1805525 L217.695,24.1805525 L217.695,1.6865525 L243.225,1.6865525 L243.225,0.651552499 L216.591,0.651552499 L216.591,48.8825525 L243.363,48.8825525 Z M264.615,48.8825525 C296.286,48.8825525 296.286,0.651552499 264.615,0.651552499 L248.331,0.651552499 L248.331,48.8825525 L248.331,48.8825525 L264.615,48.8825525 Z M264.615,47.8475525 L249.366,47.8475525 L249.366,1.6865525 L249.366,1.6865525 L264.615,1.6865525 C294.906,1.6865525 294.906,47.8475525 264.615,47.8475525 Z" id="SCRIPTED" stroke="#FFFFFF" fill="#FFFFFF" fill-rule="nonzero"></path>
        </g>
    </g>
</svg>